author;author_type;link;city;deal_type;accommodation_type;floor;floors_count;rooms_count;total_meters;price_per_m2;price;year_of_construction;living_meters;kitchen_meters;phone;district;street;underground;residential_complex
MR Group;developer;https://www.cian.ru/sale/flat/287781519/;??????;sale;flat;6;10;2;72.6;649876;47181037;2023;-1;-1;+74951389907;???????;???????? ??;???????????;????? ??
????? ???????????? ?? ?????????;real_estate_agent;https://www.cian.ru/sale/flat/287075007/;??????;sale;flat;6;9;2;34.1;278592;9500000;1966;20.7;6.6;+79685065403;????????? ????;????????;?????????;
GRAVION;developer;https://www.cian.ru/sale/flat/284824191/;??????;sale;flat;3;9;2;75.48;982728;74176317;2023;-1;-1;+74997047064;????????;????????? ????????;???????????;??????? ??? CULT
????? ???????????? ?? ?????????;real_estate_agent;https://www.cian.ru/sale/flat/286728967/;??????;sale;flat;12;25;2;55.6;336151;18690000;2022;22.8;18.8;+79685065403;???????-???????????;??????? ??????????;???????????;??????? ?????????? 2
ANT Development;developer;https://www.cian.ru/sale/flat/274568603/;??????;sale;flat;6;10;-1;202.0;378919;76541788;2023;-1;6.0;+74951346678;????????????;;???? ??????;??????? ???? ?????????? ??
????? ???????????? ?? ?????????;real_estate_agent;https://www.cian.ru/sale/flat/285795620/;??????;sale;flat;2;28;2;68.8;318313;21900000;2024;22.6;32.5;+79802132825;???????????;;???;????? ??
Sminex-??????;developer;https://www.cian.ru/sale/flat/281896680/;??????;sale;flat;2;5;2;55.24;1951846;107820000;2024;28.0;-1;+74951389896;????????;;??????? ?????????;??????? 3/8 ??
??????;real_estate_agent;https://www.cian.ru/sale/flat/287766599/;??????;sale;flat;4;45;2;79.7;190950;15218715;2013;43.0;10.1;+79660543735;???????? ?????????;??????????;????????;???????
Capital Group;developer;https://www.cian.ru/sale/flat/286955467/;??????;sale;flat;2;4;2;103.9;1706250;177279375;2023;-1;-1;+74951348165;????????;????????? ??????????;??????????????? ???;???????
??????;real_estate_agent;https://www.cian.ru/sale/flat/286662165/;??????;sale;flat;5;40;2;97.0;310000;30070000;2010;43.1;13.9;+79152314187;???????;???????;???????;
????-???????????;developer;https://www.cian.ru/sale/flat/283852316/;??????;sale;flat;22;46;-1;202.0;191208;38624092;2026;-1;-1;+74951348411;????????????;??????????? ??????;????;River Park Towers ???????????
??????;real_estate_agent;https://www.cian.ru/sale/flat/285914437/;??????;sale;flat;35;45;2;75.7;216000;16351200;2013;29.8;10.4;+79660543735;???????? ?????????;??????????;????????;???????
?????? ??????;developer;https://www.cian.ru/sale/flat/285606813/;??????;sale;flat;2;21;2;68.1;443936;30232100;2024;29.0;-1;+74951346545;?????????;????????????????????;???????????? ???;????
?????????;real_estate_agent;https://www.cian.ru/sale/flat/285551580/;??????;sale;flat;4;16;2;39.0;256410;10000000;1990;26.0;8.0;+79671294145;????????;????-????????;????-????????;
Sminex-??????;developer;https://www.cian.ru/sale/flat/281051017/;??????;sale;flat;2;14;2;85.6;1887383;161560000;2024;28.0;28.0;+74951346331;????????;;???????;???????????? ??
?????;real_estate_agent;https://www.cian.ru/sale/flat/286755258/;??????;sale;flat;4;16;2;39.0;256410;10000000;1990;24.0;8.0;+79623638279;????????;????-????????;????-????????;
ASTERUS;developer;https://www.cian.ru/sale/flat/285873312/;??????;sale;flat;4;22;2;62.3;334670;20849941;2025;-1;-1;+74951374983;??????????-?????????;;???????;???? ??
METRAGE;real_estate_agent;https://www.cian.ru/sale/flat/282792023/;??????;sale;flat;12;30;2;78.8;466370;36750000;2007;50.0;10.0;+79096492780;?????????-????????;???????? ???????????;???-????????;
Absolute Premium;developer;https://www.cian.ru/sale/flat/285441840/;??????;sale;flat;4;17;2;49.8;791285;39406000;2026;27.0;-1;+74951389883;?????????;;????????? ????;????????? ??????? ??
ID 13068877;realtor;https://www.cian.ru/sale/flat/287546568/;??????;sale;flat;7;9;2;62.8;883757;55500000;2019;-1;-1;+79645660817;?????????;??????? ?????????????;??????? ??????;The Mostman
?????;developer;https://www.cian.ru/sale/flat/286010795/;??????;sale;flat;12;13;2;83.6;606357;50691483;2024;52.0;7.0;+74951346791;???????????;?????????? ?????;????????;Logos
Kalinka Group;real_estate_agent;https://www.cian.ru/sale/flat/275566339/;??????;sale;flat;3;31;2;73.2;628415;46000000;2008;-1;-1;+79660471694;???????-???????????;?????????;?????????? ???????;??????????? ???????
ANT Development;developer;https://www.cian.ru/sale/flat/286827361/;??????;sale;flat;22;34;2;51.3;919016;47145572;2023;31.0;-1;+74951346402;????????????;?????????;???? ??????;????????? 9
Kalinka Group;real_estate_agent;https://www.cian.ru/sale/flat/286624024/;??????;sale;flat;4;6;2;83.4;1700000;141780000;2022;-1;-1;+79850515458;????????;??????? ???????;???????;Cloud Nine
??????;developer;https://www.cian.ru/sale/flat/281875725/;??????;sale;flat;6;11;2;56.1;775732;43518621;2025;-1;-1;+74951389882;???????????;????????????;??????????;OPUS
White and Broughton;real_estate_agent;https://www.cian.ru/sale/flat/282792525/;??????;sale;flat;5;41;2;60.7;741350;45000000;2021;40.7;6.6;+79646331510;???????????;????????????? ????????;????????;????? ????
Sminex-??????;developer;https://www.cian.ru/sale/flat/281686968/;??????;sale;flat;4;6;2;88.1;1932803;170280000;2025;43.0;10.0;+74951346869;?????????;??????????? ????????;?????? ?????;?????? ?????
ID 66343953;realtor;https://www.cian.ru/sale/flat/287830559/;??????;sale;flat;9;15;2;77.0;512987;39500000;2019;39.0;18.0;+79099976155;????????;????????????? ????????;;??? ????? ????
Sminex-??????;developer;https://www.cian.ru/sale/flat/286944837/;??????;sale;flat;4;6;2;99.6;2284036;227490000;2026;27.0;30.0;+74951348490;?????????;3-? ?????????? ????????;;??????? ??? ?????????? ? 1
White and Broughton;real_estate_agent;https://www.cian.ru/sale/flat/278315403/;??????;sale;flat;11;41;2;82.3;546780;45000000;2021;52.9;7.8;+79646331510;???????????;????????????? ????????;????????;????? ????
Regions Development;developer;https://www.cian.ru/sale/flat/286818096/;??????;sale;flat;5;17;2;68.54;416704;28560945;2024;-1;-1;+74997190431;??????????????;;?????????????? ???????;?????????????? ??????? ??
?????????;real_estate_agent;https://www.cian.ru/sale/flat/285551574/;??????;sale;flat;2;9;2;37.0;321351;11890000;1965;22.5;7.5;+79031183175;????-?????????;??????? ?????????;??????????;
??????;developer;https://www.cian.ru/sale/flat/283393236/;??????;sale;flat;38;66;2;83.6;777000;64957200;2020;-1;-1;+74951348365;???????????;1-? ????????????????? ??????;???????????;NEVA TOWERS
Isaev Estate;real_estate_agent;https://www.cian.ru/sale/flat/282690218/;??????;sale;flat;2;9;2;36.0;330277;11890000;1965;23.0;7.5;+79660505642;????-?????????;??????? ?????????;??????????;
VOSHOD;developer;https://www.cian.ru/sale/flat/287785197/;??????;sale;flat;10;17;-1;202.0;213017;43029550;2024;-1;-1;+74997040910;????????? ????;???????? ???????;???????? ????;AHEAD
ID 1196950;realtor;https://www.cian.ru/sale/flat/268028350/;??????;sale;flat;18;18;2;71.7;439330;31500000;2022;61.0;-1;+79851607540;???????;????????????;???????????;???????
MR Group;developer;https://www.cian.ru/sale/flat/281257851/;??????;sale;flat;4;41;-1;202.0;175360;35422783;2023;-1;-1;+74951346786;???????;1-? ?????????? ??????;???????;Hide
ID 6893092;realtor;https://www.cian.ru/sale/flat/286632973/;??????;sale;flat;11;20;2;99.0;575757;57000000;2009;-1;-1;+79154857962;?????????;??????????;????????????;??? ?? ???????
Regions Development;developer;https://www.cian.ru/sale/flat/287292508/;??????;sale;flat;4;24;2;70.34;453182;31876835;2023;-1;-1;+74951346693;??????????? ?????;;?????????;???? ?????? ??
??????? ???????;realtor;https://www.cian.ru/sale/flat/288111630/;??????;sale;flat;8;15;2;82.0;425609;34900000;2019;60.0;-1;+79161722401;????????;????????????? ????????;?????????? ????;??? ????? ????
VESPER;developer;https://www.cian.ru/sale/flat/262519749/;??????;sale;flat;4;21;-1;202.0;561654;113454270;2023;39.0;46.0;+74951389961;???????????;?????????;????? 1905 ????;Lucky
White and Broughton;real_estate_agent;https://www.cian.ru/sale/flat/286052590/;??????;sale;flat;5;41;2;66.1;544629;36000000;2022;40.3;4.5;+79646331510;???????????;????????????? ????????;????????;????? ????
MR Group;developer;https://www.cian.ru/sale/flat/271502885/;??????;sale;flat;47;55;2;65.63;409873;26900000;2024;-1;-1;+74951348342;??????? ????;4-? ???????? ????;???????;Mod
Kalinka Group;real_estate_agent;https://www.cian.ru/sale/flat/283196991/;??????;sale;flat;6;41;2;71.2;575702;40990000;2021;-1;-1;+79168224726;???????????;????????????? ????????;????;????? ????
????????;developer;https://www.cian.ru/sale/flat/285612775/;??????;sale;flat;10;21;2;66.8;425430;28418724;2023;30.0;15.0;+74951346551;??????;?????????;?????????;?????????
????? ????????;realtor;https://www.cian.ru/sale/flat/278956071/;??????;sale;flat;9;221;2;108.23;896239;97000001;2023;-1;-1;+79150249939;???????????;2-? ??????????????;???????????;Lucky
????-???????????;developer;https://www.cian.ru/sale/flat/280748944/;??????;sale;flat;4;6;2;74.91;1387200;103915152;2024;26.0;23.0;+74951349102;?????????????;??????????????? ??????????;?????????????;??????? ??? ????? 4/22
ID 413522;realtor;https://www.cian.ru/sale/flat/284729661/;??????;sale;flat;10;14;2;99.61;853327;85000000;2019;45.0;20.0;+79150579850;?????????;???????;??????????;??????? ????????
??????? ???????;developer;https://www.cian.ru/sale/flat/282960158/;??????;sale;flat;2;13;2;66.7;382300;25499410;2025;31.0;13.0;+74951389967;??????????-?????????;??????-???????? ??;???????;??????? ????? ?? ???? ????????? ??
BRIGHT ESTATE - ????????? ????????????;real_estate_agent;https://www.cian.ru/sale/flat/280931128/;??????;sale;flat;5;12;2;90.0;1100000;99000000;2022;-1;14.1;+79153499537;?????????;???????;;??????? ????????
Capital Group;developer;https://www.cian.ru/sale/flat/287996148/;??????;sale;flat;11;18;2;45.8;1029000;47128200;2025;-1;-1;+74951348398;????????????;;????????;?????????? ??
Kalinka Group;real_estate_agent;https://www.cian.ru/sale/flat/286528070/;??????;sale;flat;10;19;2;75.4;623342;47000000;2008;-1;-1;+79154194704;???????;????????????? ????????;????????????? ????????;??????? ???????????
Forma;developer;https://www.cian.ru/sale/flat/283996606/;??????;sale;flat;2;21;-1;202.0;123146;24875521;2025;25.0;19.0;+74951346320;????????;???????;??????? ???????;SOUL
SKYEST;real_estate_agent;https://www.cian.ru/sale/flat/286338119/;??????;sale;flat;7;13;2;74.3;940780;69900000;2019;49.0;12.0;+79854414287;?????????;???????;??????????;??????? ????????
